EESchema Schematic File Version 2
LIBS:power
LIBS:device
LIBS:transistors
LIBS:conn
LIBS:linear
LIBS:regul
LIBS:74xx
LIBS:cmos4000
LIBS:adc-dac
LIBS:memory
LIBS:xilinx
LIBS:microcontrollers
LIBS:dsp
LIBS:microchip
LIBS:analog_switches
LIBS:motorola
LIBS:texas
LIBS:intel
LIBS:audio
LIBS:interface
LIBS:digital-audio
LIBS:philips
LIBS:display
LIBS:cypress
LIBS:siliconi
LIBS:opto
LIBS:atmel
LIBS:contrib
LIBS:valves
LIBS:cd4093
EELAYER 25 0
EELAYER END
$Descr A4 11693 8268
encoding utf-8
Sheet 1 1
Title ""
Date ""
Rev ""
Comp ""
Comment1 ""
Comment2 ""
Comment3 ""
Comment4 ""
$EndDescr
$Comp
L CD4093 U1
U 1 1 58B4304D
P 5500 2600
F 0 "U1" H 5900 2700 60  0000 C CNN
F 1 "CD4093" H 5850 1900 60  0000 C CNN
F 2 "Housings_DIP:DIP-14_W7.62mm_LongPads" H 5500 2600 60  0001 C CNN
F 3 "" H 5500 2600 60  0001 C CNN
	1    5500 2600
	0    1    1    0   
$EndComp
$Comp
L CONN_01X01 P1
U 1 1 58B430EF
P 4600 4250
F 0 "P1" H 4600 4350 50  0000 C CNN
F 1 "CONN_01X01" V 4700 4250 50  0000 C CNN
F 2 "Pin_Headers:Pin_Header_Straight_1x01_Pitch2.54mm" H 4600 4250 50  0001 C CNN
F 3 "" H 4600 4250 50  0000 C CNN
	1    4600 4250
	0    1    1    0   
$EndComp
$Comp
L CONN_01X01 P2
U 1 1 58B43138
P 5000 4250
F 0 "P2" H 5000 4350 50  0000 C CNN
F 1 "CONN_01X01" V 5100 4250 50  0000 C CNN
F 2 "Pin_Headers:Pin_Header_Straight_1x01_Pitch2.54mm" H 5000 4250 50  0001 C CNN
F 3 "" H 5000 4250 50  0000 C CNN
	1    5000 4250
	0    1    1    0   
$EndComp
$Comp
L CONN_01X01 P3
U 1 1 58B4315F
P 5350 4250
F 0 "P3" H 5350 4350 50  0000 C CNN
F 1 "CONN_01X01" V 5450 4250 50  0000 C CNN
F 2 "Pin_Headers:Pin_Header_Straight_1x01_Pitch2.54mm" H 5350 4250 50  0001 C CNN
F 3 "" H 5350 4250 50  0000 C CNN
	1    5350 4250
	0    1    1    0   
$EndComp
$Comp
L CONN_01X01 P4
U 1 1 58B4317E
P 5700 4250
F 0 "P4" H 5700 4350 50  0000 C CNN
F 1 "CONN_01X01" V 5800 4250 50  0000 C CNN
F 2 "Pin_Headers:Pin_Header_Straight_1x01_Pitch2.54mm" H 5700 4250 50  0001 C CNN
F 3 "" H 5700 4250 50  0000 C CNN
	1    5700 4250
	0    1    1    0   
$EndComp
Wire Wire Line
	4600 4050 4600 3550
Wire Wire Line
	4350 3550 4900 3550
Wire Wire Line
	4900 3550 4900 3350
Wire Wire Line
	5000 4050 5000 3700
Wire Wire Line
	5000 3700 5100 3700
Wire Wire Line
	5100 3700 5100 3350
Wire Wire Line
	5350 4050 5350 3700
Wire Wire Line
	5350 3700 5200 3700
Wire Wire Line
	5200 3700 5200 3350
Wire Wire Line
	5700 4050 5700 3550
Wire Wire Line
	5400 3550 5900 3550
Wire Wire Line
	5400 3550 5400 3350
$Comp
L CONN_01X02 P5
U 1 1 58B43254
P 6350 3400
F 0 "P5" H 6350 3550 50  0000 C CNN
F 1 "CONN_01X02" V 6450 3400 50  0000 C CNN
F 2 "Pin_Headers:Pin_Header_Straight_1x02_Pitch3.96mm_Friction_Lock" H 6350 3400 50  0001 C CNN
F 3 "" H 6350 3400 50  0000 C CNN
	1    6350 3400
	1    0    0    -1  
$EndComp
$Comp
L GND #PWR01
U 1 1 58B43291
P 6150 3700
F 0 "#PWR01" H 6150 3450 50  0001 C CNN
F 1 "GND" H 6150 3550 50  0000 C CNN
F 2 "" H 6150 3700 50  0000 C CNN
F 3 "" H 6150 3700 50  0000 C CNN
	1    6150 3700
	1    0    0    -1  
$EndComp
$Comp
L VDD #PWR02
U 1 1 58B432B1
P 6150 3200
F 0 "#PWR02" H 6150 3050 50  0001 C CNN
F 1 "VDD" H 6150 3350 50  0000 C CNN
F 2 "" H 6150 3200 50  0000 C CNN
F 3 "" H 6150 3200 50  0000 C CNN
	1    6150 3200
	1    0    0    -1  
$EndComp
Wire Wire Line
	6150 3450 6150 3700
Wire Wire Line
	6150 3200 6150 3350
Wire Wire Line
	6150 3350 5500 3350
Wire Wire Line
	5300 3350 5300 3450
Wire Wire Line
	5000 3450 5500 3450
Wire Wire Line
	5500 3450 5500 3350
Wire Wire Line
	5000 3350 5000 3450
Connection ~ 5300 3450
$Comp
L C C1
U 1 1 58B43394
P 4350 3700
F 0 "C1" H 4375 3800 50  0000 L CNN
F 1 "C" H 4375 3600 50  0000 L CNN
F 2 "Capacitors_SMD:C_2220_HandSoldering" H 4388 3550 50  0001 C CNN
F 3 "" H 4350 3700 50  0000 C CNN
	1    4350 3700
	1    0    0    -1  
$EndComp
$Comp
L C C2
U 1 1 58B433C7
P 5900 3700
F 0 "C2" H 5925 3800 50  0000 L CNN
F 1 "C" H 5925 3600 50  0000 L CNN
F 2 "Capacitors_SMD:C_2220_HandSoldering" H 5938 3550 50  0001 C CNN
F 3 "" H 5900 3700 50  0000 C CNN
	1    5900 3700
	1    0    0    -1  
$EndComp
$Comp
L GND #PWR03
U 1 1 58B4347A
P 5900 3900
F 0 "#PWR03" H 5900 3650 50  0001 C CNN
F 1 "GND" H 5900 3750 50  0000 C CNN
F 2 "" H 5900 3900 50  0000 C CNN
F 3 "" H 5900 3900 50  0000 C CNN
	1    5900 3900
	1    0    0    -1  
$EndComp
$Comp
L GND #PWR04
U 1 1 58B4349E
P 4350 3900
F 0 "#PWR04" H 4350 3650 50  0001 C CNN
F 1 "GND" H 4350 3750 50  0000 C CNN
F 2 "" H 4350 3900 50  0000 C CNN
F 3 "" H 4350 3900 50  0000 C CNN
	1    4350 3900
	1    0    0    -1  
$EndComp
Wire Wire Line
	4350 3900 4350 3850
Wire Wire Line
	5900 3900 5900 3850
Connection ~ 4600 3550
Connection ~ 5700 3550
Wire Wire Line
	5000 2600 5000 2500
Wire Wire Line
	5000 2500 5150 2500
Wire Wire Line
	5100 2500 5100 2600
Wire Wire Line
	5400 2600 5400 2500
Wire Wire Line
	5350 2500 5500 2500
Wire Wire Line
	5500 2500 5500 2600
Wire Wire Line
	5200 3400 5250 3400
Wire Wire Line
	5250 3400 5250 2950
Wire Wire Line
	5250 2950 5350 2950
Wire Wire Line
	5350 2950 5350 2500
Connection ~ 5400 2500
Connection ~ 5200 3400
Wire Wire Line
	5100 3400 5150 3400
Wire Wire Line
	5150 3400 5150 2500
Connection ~ 5100 2500
Connection ~ 5100 3400
$Comp
L LED D1
U 1 1 58B43678
P 5350 1850
F 0 "D1" H 5350 1950 50  0000 C CNN
F 1 "LED" H 5350 1750 50  0000 C CNN
F 2 "Capacitors_SMD:C_2220_HandSoldering" H 5350 1850 50  0001 C CNN
F 3 "" H 5350 1850 50  0000 C CNN
	1    5350 1850
	-1   0    0    1   
$EndComp
$Comp
L LED D2
U 1 1 58B436BF
P 5450 2050
F 0 "D2" H 5450 2150 50  0000 C CNN
F 1 "LED" H 5450 1950 50  0000 C CNN
F 2 "Capacitors_SMD:C_2220_HandSoldering" H 5450 2050 50  0001 C CNN
F 3 "" H 5450 2050 50  0000 C CNN
	1    5450 2050
	-1   0    0    1   
$EndComp
Wire Wire Line
	5200 2600 5200 1850
Wire Wire Line
	5300 2600 5300 2050
$Comp
L Speaker LS1
U 1 1 58B4382D
P 6350 1950
F 0 "LS1" H 6400 2175 50  0000 R CNN
F 1 "Speaker" H 6400 2100 50  0000 R CNN
F 2 "Pin_Headers:Pin_Header_Straight_1x02_Pitch3.96mm_Friction_Lock" H 6350 1750 50  0001 C CNN
F 3 "" H 6340 1900 50  0000 C CNN
	1    6350 1950
	1    0    0    -1  
$EndComp
$Comp
L GND #PWR05
U 1 1 58B4386E
P 6050 2200
F 0 "#PWR05" H 6050 1950 50  0001 C CNN
F 1 "GND" H 6050 2050 50  0000 C CNN
F 2 "" H 6050 2200 50  0000 C CNN
F 3 "" H 6050 2200 50  0000 C CNN
	1    6050 2200
	1    0    0    -1  
$EndComp
Wire Wire Line
	6050 2200 6050 2050
Wire Wire Line
	6050 2050 6150 2050
Wire Wire Line
	5500 1850 5800 1850
Wire Wire Line
	5800 1850 5800 2050
Wire Wire Line
	5800 1950 6150 1950
Wire Wire Line
	5800 2050 5600 2050
Connection ~ 5800 1950
$Comp
L GND #PWR06
U 1 1 58B43951
P 4600 2650
F 0 "#PWR06" H 4600 2400 50  0001 C CNN
F 1 "GND" H 4600 2500 50  0000 C CNN
F 2 "" H 4600 2650 50  0000 C CNN
F 3 "" H 4600 2650 50  0000 C CNN
	1    4600 2650
	1    0    0    -1  
$EndComp
Wire Wire Line
	4600 2650 4600 2500
Wire Wire Line
	4600 2500 4900 2500
Wire Wire Line
	4900 2500 4900 2600
$Comp
L PWR_FLAG #FLG07
U 1 1 58B43B0C
P 7600 3250
F 0 "#FLG07" H 7600 3345 50  0001 C CNN
F 1 "PWR_FLAG" H 7600 3430 50  0000 C CNN
F 2 "" H 7600 3250 50  0000 C CNN
F 3 "" H 7600 3250 50  0000 C CNN
	1    7600 3250
	1    0    0    -1  
$EndComp
$Comp
L PWR_FLAG #FLG08
U 1 1 58B43C3A
P 7150 3250
F 0 "#FLG08" H 7150 3345 50  0001 C CNN
F 1 "PWR_FLAG" H 7150 3430 50  0000 C CNN
F 2 "" H 7150 3250 50  0000 C CNN
F 3 "" H 7150 3250 50  0000 C CNN
	1    7150 3250
	1    0    0    -1  
$EndComp
$Comp
L GND #PWR09
U 1 1 58B43CA5
P 7150 3400
F 0 "#PWR09" H 7150 3150 50  0001 C CNN
F 1 "GND" H 7150 3250 50  0000 C CNN
F 2 "" H 7150 3400 50  0000 C CNN
F 3 "" H 7150 3400 50  0000 C CNN
	1    7150 3400
	1    0    0    -1  
$EndComp
$Comp
L VDD #PWR010
U 1 1 58B43CCF
P 7900 3250
F 0 "#PWR010" H 7900 3100 50  0001 C CNN
F 1 "VDD" H 7900 3400 50  0000 C CNN
F 2 "" H 7900 3250 50  0000 C CNN
F 3 "" H 7900 3250 50  0000 C CNN
	1    7900 3250
	1    0    0    -1  
$EndComp
Wire Wire Line
	7900 3250 7600 3250
Wire Wire Line
	7150 3250 7150 3400
$EndSCHEMATC
